\relax 
\providecommand\hyper@newdestlabel[2]{}
\providecommand\HyperFirstAtBeginDocument{\AtBeginDocument}
\HyperFirstAtBeginDocument{\ifx\hyper@anchor\@undefined
\global\let\oldcontentsline\contentsline
\gdef\contentsline#1#2#3#4{\oldcontentsline{#1}{#2}{#3}}
\global\let\oldnewlabel\newlabel
\gdef\newlabel#1#2{\newlabelxx{#1}#2}
\gdef\newlabelxx#1#2#3#4#5#6{\oldnewlabel{#1}{{#2}{#3}}}
\AtEndDocument{\ifx\hyper@anchor\@undefined
\let\contentsline\oldcontentsline
\let\newlabel\oldnewlabel
\fi}
\fi}
\global\let\hyper@last\relax 
\gdef\HyperFirstAtBeginDocument#1{#1}
\providecommand\HyField@AuxAddToFields[1]{}
\providecommand\HyField@AuxAddToCoFields[2]{}
\citation{*}
\bibstyle{bibexo}
\bibdata{exercices}
\bibcite{ccinp2023-001.md}{1}
\bibcite{ccinp2023-043.md}{2}
\bibcite{ccinp2023-055.md}{3}
\bibcite{2022/RMS2022-1434.md}{4}
\bibcite{2022/RMS2022-711.md}{5}
\bibcite{ccinp2023-003.md}{6}
\bibcite{ccinp2023-004.md}{7}
\bibcite{ccinp2023-006.md}{8}
\bibcite{ccinp2023-007.md}{9}
\bibcite{ccinp2023-008.md}{10}
\bibcite{ccinp2023-046.md}{11}
\bibcite{2022/RMS2022-1307.md}{12}
\bibcite{2022/RMS2022-1437.md}{13}
\bibcite{ccinp2023-033.md}{14}
\bibcite{ccinp2023-052.md}{15}
\bibcite{ccinp2023-057.md}{16}
\bibcite{2022/RMS2022-1472.md}{17}
\bibcite{2022/RMS2022-1473.md}{18}
\bibcite{2022/RMS2022-1443.md}{19}
\bibcite{ccinp2023-042.md}{20}
\bibcite{2022/RMS2022-1470.md}{21}
\bibcite{ccinp2023-059.md}{22}
\bibcite{ccinp2023-060.md}{23}
\bibcite{ccinp2023-064.md}{24}
\bibcite{ccinp2023-071.md}{25}
\bibcite{ccinp2023-090.md}{26}
\bibcite{2022/RMS2022-1398.md}{27}
\bibcite{2022/RMS2022-1406.md}{28}
\bibcite{ccinp2023-076.md}{29}
\bibcite{ccinp2023-077.md}{30}
\bibcite{ccinp2023-079.md}{31}
\bibcite{ccinp2023-080.md}{32}
\bibcite{ccinp2023-081.md}{33}
\bibcite{ccinp2023-082.md}{34}
\bibcite{2022/RMS2022-1424.md}{35}
\bibcite{2022/RMS2022-694.md}{36}
\bibcite{2022/RMS2022-1371.md}{37}
\bibcite{2022/RMS2022-1383.md}{38}
\bibcite{ccinp2023-084.md}{39}
\bibcite{ccinp2023-089.md}{40}
\bibcite{2022/RMS2022-1393.md}{41}
\bibcite{2022/RMS2022-1394.md}{42}
\bibcite{2022/RMS2022-1346.md}{43}
\bibcite{ccinp2023-085.md}{44}
\bibcite{ccinp2023-087.md}{45}
\bibcite{2022/RMS2022-1395.md}{46}
\bibcite{2022/RMS2022-675.md}{47}
\bibcite{ccinp2023-105.md}{48}
\bibcite{ccinp2023-107.md}{49}
\bibcite{ccinp2023-112.md}{50}
\bibcite{ccinp2023-092.md}{51}
\bibcite{ccinp2023-095.md}{52}
\bibcite{ccinp2023-098.md}{53}
\bibcite{ccinp2023-102.md}{54}
\bibcite{ccinp2023-104.md}{55}
\bibcite{ccinp2023-109.md}{56}
\bibcite{2022/RMS2022-1479.md}{57}
\gdef \@abspage@last{35}
